EESchema Schematic File Version 4
EELAYER 30 0
EELAYER END
$Descr A4 11693 8268
encoding utf-8
Sheet 1 1
Title "PCB Taula de Mescles"
Date "2020-02-03"
Rev "1"
Comp "IES Pare Vitòria"
Comment1 "Elaborat per Arnau Mora Gras"
Comment2 ""
Comment3 ""
Comment4 ""
$EndDescr
$Comp
L PCB-Taula-de-Mescles-rescue:ESP32DEVKITV1-ESP32-DEVKITV1 M1
U 1 1 5E308E38
P 2300 2600
F 0 "M1" V 1230 2600 45  0000 C CNN
F 1 "ESP32DEVKITV1" V 2300 2600 45  0001 L BNN
F 2 "ESP32-DEVKITV1:ESP32-DEVKITV1-ESP32-DEVKITV1" H 2330 2750 20  0001 C CNN
F 3 "" H 2300 2600 50  0001 C CNN
	1    2300 2600
	0    1    1    0   
$EndComp
$Comp
L Connector_TDM:Slider J1
U 1 1 5E328C23
P 10350 1250
F 0 "J1" H 10430 1292 50  0000 L CNN
F 1 "Slider 1" H 10430 1201 50  0000 L CNN
F 2 "Conn_TDM:JST_SERVO" H 10350 1250 50  0001 C CNN
F 3 "~" H 10350 1250 50  0001 C CNN
	1    10350 1250
	1    0    0    -1  
$EndComp
$Comp
L Connector_TDM:Slider J2
U 1 1 5E3295B1
P 10350 2000
F 0 "J2" H 10430 2042 50  0000 L CNN
F 1 "Slider 2" H 10430 1951 50  0000 L CNN
F 2 "Conn_TDM:JST_SERVO" H 10350 2000 50  0001 C CNN
F 3 "~" H 10350 2000 50  0001 C CNN
	1    10350 2000
	1    0    0    -1  
$EndComp
$Comp
L Connector_TDM:Slider J3
U 1 1 5E329DF0
P 10350 2750
F 0 "J3" H 10430 2792 50  0000 L CNN
F 1 "Slider 3" H 10430 2701 50  0000 L CNN
F 2 "Conn_TDM:JST_SERVO" H 10350 2750 50  0001 C CNN
F 3 "~" H 10350 2750 50  0001 C CNN
	1    10350 2750
	1    0    0    -1  
$EndComp
$Comp
L Connector_TDM:Slider J4
U 1 1 5E32A58F
P 9250 1250
F 0 "J4" H 9478 1296 50  0000 L CNN
F 1 "Slider 4" H 9478 1205 50  0000 L CNN
F 2 "Conn_TDM:JST_SERVO" H 9250 1250 50  0001 C CNN
F 3 "~" H 9250 1250 50  0001 C CNN
	1    9250 1250
	1    0    0    -1  
$EndComp
$Comp
L Connector_TDM:Slider J5
U 1 1 5E32BCB8
P 9250 2000
F 0 "J5" H 9330 2042 50  0000 L CNN
F 1 "Slider 5" H 9330 1951 50  0000 L CNN
F 2 "Conn_TDM:JST_SERVO" H 9250 2000 50  0001 C CNN
F 3 "~" H 9250 2000 50  0001 C CNN
	1    9250 2000
	1    0    0    -1  
$EndComp
Text Label 3000 1800 0    50   ~ 0
GND
Text Label 1600 1800 2    50   ~ 0
GND
Text Label 1600 1700 2    50   ~ 0
3V3
Text Label 3000 1700 0    50   ~ 0
VIN
Text Label 1750 1100 2    50   ~ 0
GND
$Comp
L power:GND #PWR01
U 1 1 5E32EF50
P 1750 1250
F 0 "#PWR01" H 1750 1000 50  0001 C CNN
F 1 "GND" H 1755 1077 50  0000 C CNN
F 2 "" H 1750 1250 50  0001 C CNN
F 3 "" H 1750 1250 50  0001 C CNN
	1    1750 1250
	1    0    0    -1  
$EndComp
Wire Wire Line
	1750 1250 1750 1100
Text Label 1600 2100 2    50   ~ 0
POT_1_PIN
Text Label 1600 2400 2    50   ~ 0
DMX_PIN
Text Label 1600 2500 2    50   ~ 0
POTM_5_PIN
Text Label 1600 2600 2    50   ~ 0
POTM_4_PIN
Text Label 1600 2700 2    50   ~ 0
SDA
Text Label 1600 3000 2    50   ~ 0
SCL
Text Label 1600 3100 2    50   ~ 0
POTM_3_PIN
Text Label 3000 2300 0    50   ~ 0
POT_5_PIN
Text Label 3000 2400 0    50   ~ 0
ROTARY_ENCODER_BUTTON_PIN
Text Label 3000 2500 0    50   ~ 0
ROTARY_ENCODER_B_PIN
Text Label 3000 2600 0    50   ~ 0
ROTARY_ENCODER_A_PIN
Text Label 3000 2700 0    50   ~ 0
POT_4_PIN
Text Label 3000 2800 0    50   ~ 0
POT_3_PIN
Text Label 3000 2900 0    50   ~ 0
POTM_2_PIN
Text Label 3000 3000 0    50   ~ 0
POTM_1_PIN
Text Label 1600 1900 2    50   ~ 0
POT_2_PIN
NoConn ~ 1600 2900
NoConn ~ 1600 2800
NoConn ~ 1600 2300
NoConn ~ 1600 2200
$Comp
L Device:R R1
U 1 1 5E331A71
P 3050 3300
F 0 "R1" H 3120 3346 50  0000 L CNN
F 1 "180" H 3120 3255 50  0000 L CNN
F 2 "Resistor_THT:R_Axial_DIN0204_L3.6mm_D1.6mm_P7.62mm_Horizontal" V 2980 3300 50  0001 C CNN
F 3 "~" H 3050 3300 50  0001 C CNN
	1    3050 3300
	1    0    0    -1  
$EndComp
Wire Wire Line
	3000 3100 3050 3100
Wire Wire Line
	3050 3100 3050 3150
$Comp
L Device:LED D1
U 1 1 5E332528
P 3050 3650
F 0 "D1" V 3089 3533 50  0000 R CNN
F 1 "LED" V 2998 3533 50  0000 R CNN
F 2 "LED_THT:LED_D3.0mm" H 3050 3650 50  0001 C CNN
F 3 "~" H 3050 3650 50  0001 C CNN
	1    3050 3650
	0    -1   -1   0   
$EndComp
$Comp
L power:GND #PWR03
U 1 1 5E332E25
P 3050 3850
F 0 "#PWR03" H 3050 3600 50  0001 C CNN
F 1 "GND" H 3055 3677 50  0000 C CNN
F 2 "" H 3050 3850 50  0001 C CNN
F 3 "" H 3050 3850 50  0001 C CNN
	1    3050 3850
	1    0    0    -1  
$EndComp
Wire Wire Line
	3050 3850 3050 3800
Wire Wire Line
	3050 3500 3050 3450
$Comp
L power:GND #PWR012
U 1 1 5E333B83
P 9050 2300
F 0 "#PWR012" H 9050 2050 50  0001 C CNN
F 1 "GND" V 9055 2172 50  0000 R CNN
F 2 "" H 9050 2300 50  0001 C CNN
F 3 "" H 9050 2300 50  0001 C CNN
	1    9050 2300
	0    1    1    0   
$EndComp
$Comp
L power:GND #PWR010
U 1 1 5E33401B
P 9050 1550
F 0 "#PWR010" H 9050 1300 50  0001 C CNN
F 1 "GND" V 9055 1422 50  0000 R CNN
F 2 "" H 9050 1550 50  0001 C CNN
F 3 "" H 9050 1550 50  0001 C CNN
	1    9050 1550
	0    1    1    0   
$EndComp
$Comp
L power:GND #PWR018
U 1 1 5E33433B
P 10150 1550
F 0 "#PWR018" H 10150 1300 50  0001 C CNN
F 1 "GND" V 10155 1422 50  0000 R CNN
F 2 "" H 10150 1550 50  0001 C CNN
F 3 "" H 10150 1550 50  0001 C CNN
	1    10150 1550
	0    1    1    0   
$EndComp
$Comp
L power:GND #PWR020
U 1 1 5E33468C
P 10150 2300
F 0 "#PWR020" H 10150 2050 50  0001 C CNN
F 1 "GND" V 10155 2172 50  0000 R CNN
F 2 "" H 10150 2300 50  0001 C CNN
F 3 "" H 10150 2300 50  0001 C CNN
	1    10150 2300
	0    1    1    0   
$EndComp
$Comp
L power:GND #PWR022
U 1 1 5E334ACF
P 10150 3050
F 0 "#PWR022" H 10150 2800 50  0001 C CNN
F 1 "GND" V 10155 2922 50  0000 R CNN
F 2 "" H 10150 3050 50  0001 C CNN
F 3 "" H 10150 3050 50  0001 C CNN
	1    10150 3050
	0    1    1    0   
$EndComp
$Comp
L power:+3.3V #PWR02
U 1 1 5E334EA8
P 2000 1300
F 0 "#PWR02" H 2000 1150 50  0001 C CNN
F 1 "+3.3V" H 2015 1473 50  0000 C CNN
F 2 "" H 2000 1300 50  0001 C CNN
F 3 "" H 2000 1300 50  0001 C CNN
	1    2000 1300
	-1   0    0    1   
$EndComp
Text Label 2000 1100 2    50   ~ 0
3V3
Wire Wire Line
	2000 1300 2000 1100
$Comp
L power:+3.3V #PWR09
U 1 1 5E335CAE
P 9050 1350
F 0 "#PWR09" H 9050 1200 50  0001 C CNN
F 1 "+3.3V" V 9065 1478 50  0000 L CNN
F 2 "" H 9050 1350 50  0001 C CNN
F 3 "" H 9050 1350 50  0001 C CNN
	1    9050 1350
	0    -1   -1   0   
$EndComp
$Comp
L power:+3.3V #PWR011
U 1 1 5E3368FA
P 9050 2100
F 0 "#PWR011" H 9050 1950 50  0001 C CNN
F 1 "+3.3V" V 9065 2228 50  0000 L CNN
F 2 "" H 9050 2100 50  0001 C CNN
F 3 "" H 9050 2100 50  0001 C CNN
	1    9050 2100
	0    -1   -1   0   
$EndComp
$Comp
L power:+3.3V #PWR017
U 1 1 5E336C6F
P 10150 1350
F 0 "#PWR017" H 10150 1200 50  0001 C CNN
F 1 "+3.3V" V 10165 1478 50  0000 L CNN
F 2 "" H 10150 1350 50  0001 C CNN
F 3 "" H 10150 1350 50  0001 C CNN
	1    10150 1350
	0    -1   -1   0   
$EndComp
$Comp
L power:+3.3V #PWR019
U 1 1 5E337097
P 10150 2100
F 0 "#PWR019" H 10150 1950 50  0001 C CNN
F 1 "+3.3V" V 10165 2228 50  0000 L CNN
F 2 "" H 10150 2100 50  0001 C CNN
F 3 "" H 10150 2100 50  0001 C CNN
	1    10150 2100
	0    -1   -1   0   
$EndComp
$Comp
L power:+3.3V #PWR021
U 1 1 5E33733E
P 10150 2850
F 0 "#PWR021" H 10150 2700 50  0001 C CNN
F 1 "+3.3V" V 10165 2978 50  0000 L CNN
F 2 "" H 10150 2850 50  0001 C CNN
F 3 "" H 10150 2850 50  0001 C CNN
	1    10150 2850
	0    -1   -1   0   
$EndComp
Text Label 10150 1450 2    50   ~ 0
POT_1_PIN
Text Label 10150 2200 2    50   ~ 0
POT_2_PIN
Text Label 10150 2950 2    50   ~ 0
POT_3_PIN
Text Label 9050 1450 2    50   ~ 0
POT_4_PIN
Text Label 9050 2200 2    50   ~ 0
POT_5_PIN
NoConn ~ 10150 1900
NoConn ~ 10150 1800
NoConn ~ 10150 1700
NoConn ~ 10150 1150
NoConn ~ 10150 1050
NoConn ~ 10150 950 
NoConn ~ 9050 950 
NoConn ~ 9050 1050
NoConn ~ 9050 1150
NoConn ~ 9050 1700
NoConn ~ 9050 1800
NoConn ~ 9050 1900
NoConn ~ 10150 2450
NoConn ~ 10150 2550
NoConn ~ 10150 2650
Wire Notes Line
	10800 800  10800 3250
Wire Notes Line
	10800 3250 8600 3250
Wire Notes Line
	8600 3250 8600 800 
Wire Notes Line
	8600 800  10800 800 
$Comp
L Connector_TDM:ENCODER_CONN J6
U 1 1 5E35542D
P 10500 4050
F 0 "J6" H 10580 4092 50  0000 L CNN
F 1 "ENCODER_CONN" H 10580 4001 50  0000 L CNN
F 2 "Conn_TDM:JST_Encoder" H 10500 4050 50  0001 C CNN
F 3 "~" H 10500 4050 50  0001 C CNN
	1    10500 4050
	1    0    0    -1  
$EndComp
Text Label 10100 3850 2    50   ~ 0
ROTARY_ENCODER_A_PIN
Text Label 9700 4050 2    50   ~ 0
ROTARY_ENCODER_B_PIN
$Comp
L Device:R R3
U 1 1 5E356133
P 10200 3700
F 0 "R3" H 10270 3746 50  0000 L CNN
F 1 "10K" H 10270 3655 50  0000 L CNN
F 2 "Resistor_THT:R_Axial_DIN0204_L3.6mm_D1.6mm_P7.62mm_Horizontal" V 10130 3700 50  0001 C CNN
F 3 "~" H 10200 3700 50  0001 C CNN
	1    10200 3700
	1    0    0    -1  
$EndComp
$Comp
L Device:R R2
U 1 1 5E35693C
P 9750 4200
F 0 "R2" H 9820 4246 50  0000 L CNN
F 1 "10K" H 9820 4155 50  0000 L CNN
F 2 "Resistor_THT:R_Axial_DIN0204_L3.6mm_D1.6mm_P7.62mm_Horizontal" V 9680 4200 50  0001 C CNN
F 3 "~" H 9750 4200 50  0001 C CNN
	1    9750 4200
	1    0    0    -1  
$EndComp
Wire Wire Line
	10100 3850 10200 3850
Connection ~ 10200 3850
Wire Wire Line
	10200 3850 10300 3850
$Comp
L power:GND #PWR015
U 1 1 5E358E30
P 10300 3950
F 0 "#PWR015" H 10300 3700 50  0001 C CNN
F 1 "GND" V 10305 3822 50  0000 R CNN
F 2 "" H 10300 3950 50  0001 C CNN
F 3 "" H 10300 3950 50  0001 C CNN
	1    10300 3950
	0    1    1    0   
$EndComp
$Comp
L power:+3.3V #PWR014
U 1 1 5E359BA6
P 10200 3550
F 0 "#PWR014" H 10200 3400 50  0001 C CNN
F 1 "+3.3V" H 10215 3723 50  0000 C CNN
F 2 "" H 10200 3550 50  0001 C CNN
F 3 "" H 10200 3550 50  0001 C CNN
	1    10200 3550
	1    0    0    -1  
$EndComp
$Comp
L power:+3.3V #PWR013
U 1 1 5E35A2A1
P 9750 4350
F 0 "#PWR013" H 9750 4200 50  0001 C CNN
F 1 "+3.3V" H 9765 4523 50  0000 C CNN
F 2 "" H 9750 4350 50  0001 C CNN
F 3 "" H 9750 4350 50  0001 C CNN
	1    9750 4350
	-1   0    0    1   
$EndComp
$Comp
L power:GND #PWR016
U 1 1 5E35A9B5
P 10300 4150
F 0 "#PWR016" H 10300 3900 50  0001 C CNN
F 1 "GND" V 10305 4022 50  0000 R CNN
F 2 "" H 10300 4150 50  0001 C CNN
F 3 "" H 10300 4150 50  0001 C CNN
	1    10300 4150
	0    1    1    0   
$EndComp
Wire Wire Line
	9700 4050 9750 4050
Connection ~ 9750 4050
Wire Wire Line
	9750 4050 10300 4050
Text Label 10300 4350 3    50   ~ 0
ROTARY_ENCODER_BUTTON_PIN
$Comp
L Connector_TDM:DMX_CONN J7
U 1 1 5E3747A8
P 7850 1850
F 0 "J7" H 7930 1892 50  0000 L CNN
F 1 "DMX_CONN" H 7930 1801 50  0000 L CNN
F 2 "Conn_TDM:JST_DMX" H 7850 1850 50  0001 C CNN
F 3 "~" H 7850 1850 50  0001 C CNN
	1    7850 1850
	1    0    0    -1  
$EndComp
$Comp
L power:+3.3V #PWR05
U 1 1 5E379E60
P 7350 2000
F 0 "#PWR05" H 7350 1850 50  0001 C CNN
F 1 "+3.3V" V 7365 2128 50  0000 L CNN
F 2 "" H 7350 2000 50  0001 C CNN
F 3 "" H 7350 2000 50  0001 C CNN
	1    7350 2000
	-1   0    0    1   
$EndComp
Text Label 6400 1650 2    50   ~ 0
DMX_PIN
$Comp
L power:+3.3V #PWR04
U 1 1 5E380B32
P 6400 1750
F 0 "#PWR04" H 6400 1600 50  0001 C CNN
F 1 "+3.3V" V 6415 1878 50  0000 L CNN
F 2 "" H 6400 1750 50  0001 C CNN
F 3 "" H 6400 1750 50  0001 C CNN
	1    6400 1750
	0    -1   -1   0   
$EndComp
$Comp
L power:GND #PWR06
U 1 1 5E38427E
P 7350 1600
F 0 "#PWR06" H 7350 1350 50  0001 C CNN
F 1 "GND" H 7355 1427 50  0000 C CNN
F 2 "" H 7350 1600 50  0001 C CNN
F 3 "" H 7350 1600 50  0001 C CNN
	1    7350 1600
	-1   0    0    1   
$EndComp
$Comp
L Connector:Screw_Terminal_01x02 J8
U 1 1 5E38B497
P 3850 1050
F 0 "J8" H 3930 1042 50  0000 L CNN
F 1 "INPUT_VOLTAGE" H 3930 951 50  0000 L CNN
F 2 "Conn_TDM:Power_Terminal" H 3850 1050 50  0001 C CNN
F 3 "~" H 3850 1050 50  0001 C CNN
	1    3850 1050
	1    0    0    -1  
$EndComp
Text Label 3650 1050 2    50   ~ 0
VIN
Text Label 3650 1150 2    50   ~ 0
GND
NoConn ~ 10150 2750
NoConn ~ 10150 2000
NoConn ~ 10150 1250
NoConn ~ 9050 1250
NoConn ~ 9050 2000
$Comp
L SN74HC04N:SN74HC04N U1
U 1 1 5E3ADCE9
P 4250 5100
F 0 "U1" H 4250 5770 50  0000 C CNN
F 1 "SN74HC04N" H 4250 5679 50  0000 C CNN
F 2 "SN74HC04N:DIP254P762X508-14" H 4250 5100 50  0001 L BNN
F 3 "DIP-14" H 4250 5100 50  0001 L BNN
F 4 "Texas Instruments" H 4250 5100 50  0001 L BNN "Campo4"
F 5 "SN74HC04N" H 4250 5100 50  0001 L BNN "Campo5"
F 6 "9590951" H 4250 5100 50  0001 L BNN "Campo6"
F 7 "08F6425" H 4250 5100 50  0001 L BNN "Campo7"
	1    4250 5100
	1    0    0    -1  
$EndComp
Text Label 3000 1900 0    50   ~ 0
POTMD_1_PIN
Text Label 3000 2000 0    50   ~ 0
POTMD_2_PIN
Text Label 3000 2100 0    50   ~ 0
POTMD_3_PIN
Text Label 3000 2200 0    50   ~ 0
POTMD_4_PIN
Text Label 1600 2000 2    50   ~ 0
POTMD_5_PIN
Text Label 3550 5000 2    50   ~ 0
POTMD_1_PIN
Text Label 6000 3700 2    50   ~ 0
POTMD_1_PIN
Text Label 6000 4100 2    50   ~ 0
POTMD_2_PIN
Text Label 3550 5100 2    50   ~ 0
POTMD_2_PIN
Text Label 7300 5400 2    50   ~ 0
POTMD_4_PIN
Text Label 7300 5000 2    50   ~ 0
POTMD_3_PIN
Text Label 3550 5200 2    50   ~ 0
POTMD_3_PIN
Text Label 3550 5300 2    50   ~ 0
POTMD_4_PIN
$Comp
L power:+3.3V #PWR0105
U 1 1 5E3CCB2C
P 3550 4800
F 0 "#PWR0105" H 3550 4650 50  0001 C CNN
F 1 "+3.3V" V 3565 4928 50  0000 L CNN
F 2 "" H 3550 4800 50  0001 C CNN
F 3 "" H 3550 4800 50  0001 C CNN
	1    3550 4800
	0    -1   -1   0   
$EndComp
$Comp
L power:GND #PWR0106
U 1 1 5E3CD573
P 3550 5700
F 0 "#PWR0106" H 3550 5450 50  0001 C CNN
F 1 "GND" H 3555 5527 50  0000 C CNN
F 2 "" H 3550 5700 50  0001 C CNN
F 3 "" H 3550 5700 50  0001 C CNN
	1    3550 5700
	1    0    0    -1  
$EndComp
NoConn ~ 3550 5500
Text Label 6000 3800 2    50   ~ 0
POTM_1_PIN
Text Label 6000 4200 2    50   ~ 0
POTM_2_PIN
Text Label 7300 5500 2    50   ~ 0
POTM_4_PIN
Text Label 7300 5100 2    50   ~ 0
POTM_3_PIN
$Comp
L Connector_Generic:Conn_01x02 J9
U 1 1 5E3D2CD3
P 7250 3500
F 0 "J9" V 7214 3312 50  0000 R CNN
F 1 "MOTOR1" V 7123 3312 50  0000 R CNN
F 2 "Connector_JST:JST_EH_B2B-EH-A_1x02_P2.50mm_Vertical" H 7250 3500 50  0001 C CNN
F 3 "~" H 7250 3500 50  0001 C CNN
	1    7250 3500
	0    -1   -1   0   
$EndComp
$Comp
L Connector_Generic:Conn_01x02 J10
U 1 1 5E3D39F3
P 7550 3750
F 0 "J10" V 7514 3562 50  0000 R CNN
F 1 "MOTOR2" V 7423 3562 50  0000 R CNN
F 2 "Connector_JST:JST_EH_B2B-EH-A_1x02_P2.50mm_Vertical" H 7550 3750 50  0001 C CNN
F 3 "~" H 7550 3750 50  0001 C CNN
	1    7550 3750
	0    -1   -1   0   
$EndComp
$Comp
L Connector_Generic:Conn_01x02 J11
U 1 1 5E3D47D3
P 8900 5250
F 0 "J11" V 8864 5062 50  0000 R CNN
F 1 "MOTOR3" V 8773 5062 50  0000 R CNN
F 2 "Connector_JST:JST_EH_B2B-EH-A_1x02_P2.50mm_Vertical" H 8900 5250 50  0001 C CNN
F 3 "~" H 8900 5250 50  0001 C CNN
	1    8900 5250
	0    -1   -1   0   
$EndComp
$Comp
L Connector_Generic:Conn_01x02 J12
U 1 1 5E3D4C89
P 8600 4950
F 0 "J12" V 8564 4762 50  0000 R CNN
F 1 "MOTOR4" V 8473 4762 50  0000 R CNN
F 2 "Connector_JST:JST_EH_B2B-EH-A_1x02_P2.50mm_Vertical" H 8600 4950 50  0001 C CNN
F 3 "~" H 8600 4950 50  0001 C CNN
	1    8600 4950
	0    -1   -1   0   
$EndComp
$Comp
L power:GND #PWR028
U 1 1 5E3F2947
P 6600 4800
F 0 "#PWR028" H 6600 4550 50  0001 C CNN
F 1 "GND" V 6605 4672 50  0000 R CNN
F 2 "" H 6600 4800 50  0001 C CNN
F 3 "" H 6600 4800 50  0001 C CNN
	1    6600 4800
	0    -1   -1   0   
$EndComp
Text Label 6700 3400 0    50   ~ 0
VIN
$Comp
L power:GND #PWR026
U 1 1 5E40BEFE
P 7900 6100
F 0 "#PWR026" H 7900 5850 50  0001 C CNN
F 1 "GND" V 7905 5972 50  0000 R CNN
F 2 "" H 7900 6100 50  0001 C CNN
F 3 "" H 7900 6100 50  0001 C CNN
	1    7900 6100
	1    0    0    -1  
$EndComp
Text Label 8000 4700 0    50   ~ 0
VIN
$Comp
L power:+3.3V #PWR029
U 1 1 5E40D478
P 6600 3400
F 0 "#PWR029" H 6600 3250 50  0001 C CNN
F 1 "+3.3V" V 6615 3528 50  0000 L CNN
F 2 "" H 6600 3400 50  0001 C CNN
F 3 "" H 6600 3400 50  0001 C CNN
	1    6600 3400
	0    -1   -1   0   
$EndComp
$Comp
L Connector_Generic:Conn_01x02 J13
U 1 1 5E42F1C4
P 6750 5850
F 0 "J13" V 6714 5662 50  0000 R CNN
F 1 "MOTOR5" V 6623 5662 50  0000 R CNN
F 2 "Connector_JST:JST_EH_B2B-EH-A_1x02_P2.50mm_Vertical" H 6750 5850 50  0001 C CNN
F 3 "~" H 6750 5850 50  0001 C CNN
	1    6750 5850
	0    -1   -1   0   
$EndComp
Text Label 5500 5900 2    50   ~ 0
POTMD_5_PIN
Text Label 3550 5400 2    50   ~ 0
POTMD_5_PIN
$Comp
L power:GND #PWR038
U 1 1 5E43B862
P 6100 7000
F 0 "#PWR038" H 6100 6750 50  0001 C CNN
F 1 "GND" V 6105 6872 50  0000 R CNN
F 2 "" H 6100 7000 50  0001 C CNN
F 3 "" H 6100 7000 50  0001 C CNN
	1    6100 7000
	1    0    0    -1  
$EndComp
Text Label 5500 6000 2    50   ~ 0
POTM_5_PIN
$Comp
L power:+3.3V #PWR037
U 1 1 5E4433D4
P 6100 5600
F 0 "#PWR037" H 6100 5450 50  0001 C CNN
F 1 "+3.3V" V 6115 5728 50  0000 L CNN
F 2 "" H 6100 5600 50  0001 C CNN
F 3 "" H 6100 5600 50  0001 C CNN
	1    6100 5600
	0    -1   -1   0   
$EndComp
Wire Wire Line
	10300 4350 10300 4250
$Comp
L Connector_TDM:MAX485_Breakout B1
U 1 1 5E351C5F
P 6850 1800
F 0 "B1" H 6850 1435 50  0000 C CNN
F 1 "MAX485_Breakout" H 6850 1526 50  0000 C CNN
F 2 "Conn_TDM:MAX 485 Breakout" H 6850 2100 50  0001 C CNN
F 3 "" H 6850 2100 50  0001 C CNN
	1    6850 1800
	-1   0    0    1   
$EndComp
Wire Wire Line
	7300 1950 7350 1950
Wire Wire Line
	7350 1950 7350 2000
Wire Wire Line
	7300 1650 7350 1650
Wire Wire Line
	7350 1650 7350 1600
Wire Wire Line
	7300 1750 7450 1750
Wire Wire Line
	7450 1750 7450 1850
Wire Wire Line
	7450 1850 7650 1850
Wire Wire Line
	7300 1850 7350 1850
Wire Wire Line
	7350 1850 7350 1800
Wire Wire Line
	7350 1800 7600 1800
Wire Wire Line
	7600 1800 7600 1750
Wire Wire Line
	7600 1750 7650 1750
Wire Notes Line
	8350 1300 6000 1300
Wire Notes Line
	6000 1300 6000 2400
Wire Notes Line
	6000 2400 8350 2400
Wire Notes Line
	8350 2400 8350 1300
$Comp
L Driver_Motor:L298HN U3
U 1 1 5E35D4E4
P 7900 5400
F 0 "U3" H 7900 6281 50  0000 C CNN
F 1 "L298HN" H 7900 6190 50  0000 C CNN
F 2 "Package_TO_SOT_THT:TO-220-15_P2.54x2.54mm_StaggerOdd_Lead4.58mm_Vertical" H 7950 4750 50  0001 L CNN
F 3 "http://www.st.com/st-web-ui/static/active/en/resource/technical/document/datasheet/CD00000240.pdf" H 8050 5650 50  0001 C CNN
	1    7900 5400
	1    0    0    -1  
$EndComp
Wire Wire Line
	8500 5200 8600 5200
Wire Wire Line
	8600 5200 8600 5150
Wire Wire Line
	8500 5300 8700 5300
Wire Wire Line
	8700 5300 8700 5150
Wire Wire Line
	8500 5500 8900 5500
Wire Wire Line
	8900 5500 8900 5450
Wire Wire Line
	8500 5600 9000 5600
Wire Wire Line
	9000 5600 9000 5450
NoConn ~ 7700 6100
NoConn ~ 7600 6100
Wire Wire Line
	4950 5100 6200 5100
$Comp
L power:+3.3V #PWR07
U 1 1 5E37F940
P 7900 4700
F 0 "#PWR07" H 7900 4550 50  0001 C CNN
F 1 "+3.3V" V 7915 4828 50  0000 L CNN
F 2 "" H 7900 4700 50  0001 C CNN
F 3 "" H 7900 4700 50  0001 C CNN
	1    7900 4700
	0    -1   -1   0   
$EndComp
$Comp
L Driver_Motor:L298HN U2
U 1 1 5E38086D
P 6600 4100
F 0 "U2" H 6600 4981 50  0000 C CNN
F 1 "L298HN" H 6600 4890 50  0000 C CNN
F 2 "Package_TO_SOT_THT:TO-220-15_P2.54x2.54mm_StaggerOdd_Lead4.58mm_Vertical" H 6650 3450 50  0001 L CNN
F 3 "http://www.st.com/st-web-ui/static/active/en/resource/technical/document/datasheet/CD00000240.pdf" H 6750 4350 50  0001 C CNN
	1    6600 4100
	1    0    0    -1  
$EndComp
NoConn ~ 6400 4800
NoConn ~ 6300 4800
Wire Wire Line
	7200 3900 7250 3900
Wire Wire Line
	7250 3900 7250 3700
Wire Wire Line
	7200 4000 7350 4000
Wire Wire Line
	7350 4000 7350 3700
Wire Wire Line
	7200 4200 7550 4200
Wire Wire Line
	7550 4200 7550 3950
Wire Wire Line
	7200 4300 7650 4300
Wire Wire Line
	7650 4300 7650 3950
Wire Wire Line
	6000 3600 5100 3600
Wire Wire Line
	5100 3600 5100 4800
Wire Wire Line
	5100 4800 4950 4800
Wire Wire Line
	4950 4900 5200 4900
Wire Wire Line
	5200 4900 5200 4000
Wire Wire Line
	5200 4000 6000 4000
Wire Wire Line
	6750 5000 6750 4900
Wire Wire Line
	6750 4900 7300 4900
Wire Wire Line
	4950 5000 6750 5000
Wire Wire Line
	7300 5300 6200 5300
Wire Wire Line
	6200 5300 6200 5100
$Comp
L Driver_Motor:L298HN U4
U 1 1 5E398D2F
P 6100 6300
F 0 "U4" H 6100 7181 50  0000 C CNN
F 1 "L298HN" H 6100 7090 50  0000 C CNN
F 2 "Package_TO_SOT_THT:TO-220-15_P2.54x2.54mm_StaggerOdd_Lead4.58mm_Vertical" H 6150 5650 50  0001 L CNN
F 3 "http://www.st.com/st-web-ui/static/active/en/resource/technical/document/datasheet/CD00000240.pdf" H 6250 6550 50  0001 C CNN
	1    6100 6300
	1    0    0    -1  
$EndComp
NoConn ~ 4950 5200
NoConn ~ 5800 7000
NoConn ~ 5900 7000
Text Label 6200 5600 0    50   ~ 0
VIN
NoConn ~ 5500 6400
NoConn ~ 5500 6300
NoConn ~ 5500 6200
Wire Wire Line
	4950 5300 5500 5300
Wire Wire Line
	5500 5300 5500 5800
Wire Wire Line
	6700 6100 6750 6100
Wire Wire Line
	6750 6100 6750 6050
Wire Wire Line
	6700 6200 6850 6200
Wire Wire Line
	6850 6200 6850 6050
NoConn ~ 6700 6500
NoConn ~ 6700 6400
NoConn ~ 6400 1950
NoConn ~ 6400 1850
Wire Wire Line
	7350 1650 7500 1650
Wire Wire Line
	7500 1650 7500 1950
Wire Wire Line
	7500 1950 7650 1950
Connection ~ 7350 1650
$Comp
L Connector_Generic:Conn_01x04 J14
U 1 1 5E3B09C2
P 1450 4550
F 0 "J14" H 1368 4125 50  0000 C CNN
F 1 "I2C_1" H 1368 4216 50  0000 C CNN
F 2 "Connector_JST:JST_EH_B4B-EH-A_1x04_P2.50mm_Vertical" H 1450 4550 50  0001 C CNN
F 3 "~" H 1450 4550 50  0001 C CNN
	1    1450 4550
	-1   0    0    1   
$EndComp
$Comp
L Connector_Generic:Conn_01x04 J15
U 1 1 5E3B22A1
P 1450 5200
F 0 "J15" H 1368 4775 50  0000 C CNN
F 1 "I2C_2" H 1368 4866 50  0000 C CNN
F 2 "Connector_JST:JST_EH_B4B-EH-A_1x04_P2.50mm_Vertical" H 1450 5200 50  0001 C CNN
F 3 "~" H 1450 5200 50  0001 C CNN
	1    1450 5200
	-1   0    0    1   
$EndComp
$Comp
L power:GND #PWR08
U 1 1 5E3B2EDA
P 1650 4650
F 0 "#PWR08" H 1650 4400 50  0001 C CNN
F 1 "GND" H 1655 4477 50  0000 C CNN
F 2 "" H 1650 4650 50  0001 C CNN
F 3 "" H 1650 4650 50  0001 C CNN
	1    1650 4650
	0    -1   -1   0   
$EndComp
$Comp
L power:GND #PWR023
U 1 1 5E3B33DD
P 1650 5300
F 0 "#PWR023" H 1650 5050 50  0001 C CNN
F 1 "GND" H 1655 5127 50  0000 C CNN
F 2 "" H 1650 5300 50  0001 C CNN
F 3 "" H 1650 5300 50  0001 C CNN
	1    1650 5300
	0    -1   -1   0   
$EndComp
Text Label 1650 4550 0    50   ~ 0
SDA
Text Label 1650 5200 0    50   ~ 0
SDA
Text Label 1650 5000 0    50   ~ 0
SCL
Text Label 1650 4350 0    50   ~ 0
SCL
$Comp
L power:+3.3V #PWR024
U 1 1 5E3B380B
P 1750 4450
F 0 "#PWR024" H 1750 4300 50  0001 C CNN
F 1 "+3.3V" H 1765 4623 50  0000 C CNN
F 2 "" H 1750 4450 50  0001 C CNN
F 3 "" H 1750 4450 50  0001 C CNN
	1    1750 4450
	0    1    1    0   
$EndComp
$Comp
L power:+3.3V #PWR025
U 1 1 5E3B41CD
P 1750 5100
F 0 "#PWR025" H 1750 4950 50  0001 C CNN
F 1 "+3.3V" H 1765 5273 50  0000 C CNN
F 2 "" H 1750 5100 50  0001 C CNN
F 3 "" H 1750 5100 50  0001 C CNN
	1    1750 5100
	0    1    1    0   
$EndComp
Wire Wire Line
	1650 5100 1750 5100
Wire Wire Line
	1650 4450 1750 4450
$EndSCHEMATC
