PCBNEW-LibModule-V1   28/01/2020-20:33:26
$INDEX
ESP32-DEVKITV1-ESP32-DEVKITV1
$EndINDEX
$MODULE ESP32-DEVKITV1-ESP32-DEVKITV1
Po 0 0 0 15 00200000 00000000 ~~
Li ESP32-DEVKITV1-ESP32-DEVKITV1
Cd 
Kw 
Sc 00000000
Op 0 0 0
At VIRTUAL
DS -10492 -5750 9980 -5750 100 21
DS 9980 -5750 9980 5484 100 21
DS 9980 5484 -10492 5484 100 21
DS -10492 5484 -10492 -5750 100 21
T0 -5750 -6250 500 500 0 40 N V 21 N ">NAME"
T2 -6444 3309 400 400 900 30 N V 21 N "3V3"
T2 -5444 3309 400 400 900 30 N V 21 N "GND"
T2 -4444 3109 400 400 900 30 N V 21 N "IO15"
T2 -3444 3309 400 400 900 30 N V 21 N "IO2"
T2 -2444 3309 400 400 900 30 N V 21 N "IO4"
T2 -1444 3109 400 400 900 30 N V 21 N "IO16"
T2 -444 3109 400 400 900 30 N V 21 N "IO17"
T2 555 3309 400 400 900 30 N V 21 N "IO5"
T2 1555 3109 400 400 900 30 N V 21 N "IO18"
T2 2555 3109 400 400 900 30 N V 21 N "IO19"
T2 3555 3109 400 400 900 30 N V 21 N "IO21"
T2 4555 3309 400 400 900 30 N V 21 N "IO3"
T2 5555 3309 400 400 900 30 N V 21 N "IO1"
T2 6555 3109 400 400 900 30 N V 21 N "IO22"
T2 7555 3109 400 400 900 30 N V 21 N "IO23"
T2 -6436 -3666 400 400 900 30 N V 21 N "VIN"
T2 -5436 -3666 400 400 900 30 N V 21 N "GND"
T2 -4436 -3866 400 400 900 30 N V 21 N "IO13"
T2 -3436 -3866 400 400 900 30 N V 21 N "IO12"
T2 -2436 -3866 400 400 900 30 N V 21 N "IO14"
T2 -1436 -3866 400 400 900 30 N V 21 N "IO27"
T2 -436 -3866 400 400 900 30 N V 21 N "IO26"
T2 563 -3866 400 400 900 30 N V 21 N "IO25"
T2 1563 -3866 400 400 900 30 N V 21 N "IO33"
T2 2563 -3866 400 400 900 30 N V 21 N "IO32"
T2 3563 -3866 400 400 900 30 N V 21 N "IO35"
T2 4563 -3866 400 400 900 30 N V 21 N "IO34"
T2 5563 -3466 400 400 900 30 N V 21 N "VN/IO39"
T2 6563 -3466 400 400 900 30 N V 21 N "VP/IO36"
T2 7563 -3466 400 400 900 30 N V 21 N "EN"
T2 6259 371 760 760 0 60 N V 21 N "ESP32-Devkit V1"
T2 7968 6037 500 500 0 40 N V 21 N "ESP32-DEVKITV1"
$PAD
Sh "3V3" C 760 760 0 0 0
Dr 393 0 0 
At STD N 00CCFFFF
Ne 0 ""
Po -6503 4830 
$EndPAD
$PAD
Sh "D1" C 760 760 0 0 0
Dr 393 0 0 
At STD N 00CCFFFF
Ne 0 ""
Po 5496 4830 
$EndPAD
$PAD
Sh "D2" C 760 760 0 0 0
Dr 393 0 0 
At STD N 00CCFFFF
Ne 0 ""
Po -3503 4830 
$EndPAD
$PAD
Sh "D3" C 760 760 0 0 0
Dr 393 0 0 
At STD N 00CCFFFF
Ne 0 ""
Po 4496 4830 
$EndPAD
$PAD
Sh "D4" C 760 760 0 0 0
Dr 393 0 0 
At STD N 00CCFFFF
Ne 0 ""
Po -2503 4830 
$EndPAD
$PAD
Sh "D5" C 760 760 0 0 0
Dr 393 0 0 
At STD N 00CCFFFF
Ne 0 ""
Po 496 4830 
$EndPAD
$PAD
Sh "D12" C 760 760 0 0 0
Dr 393 0 0 
At STD N 00CCFFFF
Ne 0 ""
Po -3503 -5171 
$EndPAD
$PAD
Sh "D13" C 760 760 0 0 0
Dr 393 0 0 
At STD N 00CCFFFF
Ne 0 ""
Po -4503 -5171 
$EndPAD
$PAD
Sh "D14" C 760 760 0 0 0
Dr 393 0 0 
At STD N 00CCFFFF
Ne 0 ""
Po -2503 -5171 
$EndPAD
$PAD
Sh "D15" C 760 760 0 0 0
Dr 393 0 0 
At STD N 00CCFFFF
Ne 0 ""
Po -4503 4830 
$EndPAD
$PAD
Sh "D16" C 760 760 0 0 0
Dr 393 0 0 
At STD N 00CCFFFF
Ne 0 ""
Po -1503 4830 
$EndPAD
$PAD
Sh "D17" C 760 760 0 0 0
Dr 393 0 0 
At STD N 00CCFFFF
Ne 0 ""
Po -503 4830 
$EndPAD
$PAD
Sh "D18" C 760 760 0 0 0
Dr 393 0 0 
At STD N 00CCFFFF
Ne 0 ""
Po 1496 4830 
$EndPAD
$PAD
Sh "D19" C 760 760 0 0 0
Dr 393 0 0 
At STD N 00CCFFFF
Ne 0 ""
Po 2496 4830 
$EndPAD
$PAD
Sh "D21" C 760 760 0 0 0
Dr 393 0 0 
At STD N 00CCFFFF
Ne 0 ""
Po 3496 4830 
$EndPAD
$PAD
Sh "D22" C 760 760 0 0 0
Dr 393 0 0 
At STD N 00CCFFFF
Ne 0 ""
Po 6496 4830 
$EndPAD
$PAD
Sh "D23" C 760 760 0 0 0
Dr 393 0 0 
At STD N 00CCFFFF
Ne 0 ""
Po 7496 4830 
$EndPAD
$PAD
Sh "D25" C 760 760 0 0 0
Dr 393 0 0 
At STD N 00CCFFFF
Ne 0 ""
Po 496 -5171 
$EndPAD
$PAD
Sh "D26" C 760 760 0 0 0
Dr 393 0 0 
At STD N 00CCFFFF
Ne 0 ""
Po -503 -5171 
$EndPAD
$PAD
Sh "D27" C 760 760 0 0 0
Dr 393 0 0 
At STD N 00CCFFFF
Ne 0 ""
Po -1503 -5171 
$EndPAD
$PAD
Sh "D32" C 760 760 0 0 0
Dr 393 0 0 
At STD N 00CCFFFF
Ne 0 ""
Po 2496 -5171 
$EndPAD
$PAD
Sh "D33" C 760 760 0 0 0
Dr 393 0 0 
At STD N 00CCFFFF
Ne 0 ""
Po 1496 -5171 
$EndPAD
$PAD
Sh "D34" C 760 760 0 0 0
Dr 393 0 0 
At STD N 00CCFFFF
Ne 0 ""
Po 4496 -5171 
$EndPAD
$PAD
Sh "D35" C 760 760 0 0 0
Dr 393 0 0 
At STD N 00CCFFFF
Ne 0 ""
Po 3496 -5171 
$EndPAD
$PAD
Sh "D36" C 760 760 0 0 0
Dr 393 0 0 
At STD N 00CCFFFF
Ne 0 ""
Po 6496 -5171 
$EndPAD
$PAD
Sh "D39" C 760 760 0 0 0
Dr 393 0 0 
At STD N 00CCFFFF
Ne 0 ""
Po 5496 -5171 
$EndPAD
$PAD
Sh "EN" C 760 760 0 0 0
Dr 393 0 0 
At STD N 00CCFFFF
Ne 0 ""
Po 7496 -5171 
$EndPAD
$PAD
Sh "GND@1" C 760 760 0 0 0
Dr 393 0 0 
At STD N 00CCFFFF
Ne 0 ""
Po -5503 -5171 
$EndPAD
$PAD
Sh "GND@2" C 760 760 0 0 0
Dr 393 0 0 
At STD N 00CCFFFF
Ne 0 ""
Po -5503 4830 
$EndPAD
$PAD
Sh "VIN" C 760 760 0 0 0
Dr 393 0 0 
At STD N 00CCFFFF
Ne 0 ""
Po -6503 -5171 
$EndPAD
$EndMODULE ESP32-DEVKITV1
$EndLIBRARY
